lab02part1/xrun_gui.log
TOOL:	xrun	19.09-s003: Started on Nov 05, 2020 at 22:22:47 CET
xrun
	-f alu_dut.f
		mtm_Alu.vp
	-f alu_tb.f
		alu_pkg.svh
		alu_bfm.svh
		coverage.svh
		tester.svh
		scoreboard.svh
		top.sv
	-v93
	+nowarnDSEM2009
	+nowarnDSEMEL
	+nowarnCGDEFN
	-xmlibdirname INCA_libs_gui
	+access+r
	+gui
	+overwrite
	-nocopyright
	-coverage all
	-covoverwrite
	-covfile xrun_covfile.txt
	-covtest lab01
	-l xrun_gui.log
INCLUDE $PDK_DIR/cds/cds.lib
|
xrun: *W,DLCVAR (/home/student/wpotaczek/cds.lib,1): cds.lib Invalid environment variable ''.
INCLUDE $PDK_DIR/cds/cds.lib
|
xrun: *W,DLCVAR (/home/student/wpotaczek/cds.lib,1): cds.lib Invalid environment variable ''.
INCLUDE $PDK_DIR/cds/cds.lib
|
xrun: *W,DLCVAR (/home/student/wpotaczek/cds.lib,1): cds.lib Invalid environment variable ''.
INCLUDE $PDK_DIR/cds/cds.lib
|
xrun: *W,DLCVAR (/home/student/wpotaczek/cds.lib,1): cds.lib Invalid environment variable ''.
INCLUDE $PDK_DIR/cds/cds.lib
|
xrun: *W,DLCVAR (/home/student/wpotaczek/cds.lib,1): cds.lib Invalid environment variable ''.
INCLUDE $PDK_DIR/cds/cds.lib
|
xrun: *W,DLCVAR (/home/student/wpotaczek/cds.lib,1): cds.lib Invalid environment variable ''.
INCLUDE $PDK_DIR/cds/cds.lib
|
xrun: *W,DLCVAR (/home/student/wpotaczek/cds.lib,1): cds.lib Invalid environment variable ''.
INCLUDE $PDK_DIR/cds/cds.lib
|
xmsim: *W,DLCVAR (/home/student/wpotaczek/cds.lib,1): cds.lib Invalid environment variable ''.

-------------------------------------
Relinquished control to SimVision...
xcelium> 
xcelium> source /cad/XCELIUM1909/tools/xcelium/files/xmsimrc
xcelium> run
PASSED: A: 9  B: ffffffff  op: add_op result: 8
PASSED: A: 65  B: 1  op: sub_op result: ffffff9c
PASSED: A: 3d  B: ffffff8c  op: sub_op result: ffffff4f
PASSED: A: ffffffc5  B: ffffffe5  op: or_op result: ffffffe5
PASSED: A: ffffff8f  B: ffffffce  op: or_op result: ffffffcf
PASSED: A: 5c  B: 2d  op: and_op result: c
PASSED: A: ffffffff  B: ffffff80  op: sub_op result: ffffff81
PASSED: A: ffffff9d  B: 13  op: and_op result: 11
PASSED: A: ffffffff  B: ffffffff  op: sub_op result: 0
PASSED: A: ffffffae  B: ffffffcf  op: sub_op result: 21
PASSED: A: ffffffca  B: 0  op: er_crc_op result: 0
PASSED: A: 0  B: 0  op: er_data_op result: 0
PASSED: A: ffffffeb  B: ffffffc6  op: and_op result: ffffffc2
PASSED: A: 0  B: b  op: er_op_op result: 0
PASSED: A: 4f  B: ffffffff  op: or_op result: ffffffff
PASSED: A: 0  B: 0  op: er_data_op result: 0
PASSED: A: 0  B: 0  op: er_data_op result: 0
PASSED: A: 0  B: 0  op: er_data_op result: 0
PASSED: A: 0  B: 0  op: er_data_op result: 0
PASSED: A: 0  B: 0  op: er_data_op result: 0
PASSED: A: ffffffd0  B: ffffffff  op: or_op result: ffffffff
PASSED: A: c  B: ffffffc8  op: or_op result: ffffffcc
PASSED: A: 12  B: 6d  op: or_op result: 7f
PASSED: A: ffffffff  B: ffffffff  op: or_op result: ffffffff
PASSED: A: 0  B: ffffffff  op: sub_op result: ffffffff
PASSED: A: ffffffff  B: 58  op: or_op result: ffffffff
PASSED: A: ffffff9c  B: 26  op: er_op_op result: 0
PASSED: A: ffffffff  B: ffffffff  op: er_crc_op result: 0
PASSED: A: ffffffff  B: 0  op: er_crc_op result: 0
PASSED: A: ffffffff  B: 5a  op: er_crc_op result: 0
PASSED: A: ffffffda  B: ffffffb5  op: or_op result: ffffffff
PASSED: A: 44  B: 0  op: or_op result: 44
PASSED: A: 0  B: 0  op: er_data_op result: 0
PASSED: A: 0  B: 0  op: er_data_op result: 0
PASSED: A: 0  B: 0  op: er_data_op result: 0
PASSED: A: 0  B: 0  op: er_data_op result: 0
PASSED: A: 0  B: 0  op: or_op result: 0
PASSED: A: 0  B: ffffffdb  op: er_crc_op result: 0
PASSED: A: 6d  B: ffffffca  op: sub_op result: ffffff5d
PASSED: A: 46  B: 0  op: er_op_op result: 0
PASSED: A: ffffffb4  B: 0  op: er_op_op result: 0
PASSED: A: ffffffc7  B: 8  op: and_op result: 0
PASSED: A: 29  B: 0  op: add_op result: 29
PASSED: A: 3d  B: 70  op: er_op_op result: 0
PASSED: A: 5e  B: ffffffd5  op: er_crc_op result: 0
PASSED: A: 0  B: 0  op: er_data_op result: 0
PASSED: A: 7d  B: 0  op: er_op_op result: 0
PASSED: A: 0  B: ffffffdb  op: er_op_op result: 0
PASSED: A: fffffffa  B: 17  op: er_op_op result: 0
PASSED: A: 50  B: 35  op: or_op result: 75
PASSED: A: ffffffc5  B: 0  op: or_op result: ffffffc5
PASSED: A: ffffffff  B: 0  op: er_crc_op result: 0
PASSED: A: 0  B: 0  op: er_data_op result: 0
PASSED: A: ffffff9f  B: 2a  op: er_op_op result: 0
PASSED: A: 38  B: ffffffc8  op: sub_op result: ffffff90
PASSED: A: 0  B: 0  op: er_data_op result: 0
PASSED: A: 0  B: 0  op: er_data_op result: 0
PASSED: A: 0  B: 0  op: er_data_op result: 0
PASSED: A: ffffffb4  B: ffffffff  op: or_op result: ffffffff
PASSED: A: fffffff2  B: ffffffbd  op: er_op_op result: 0
PASSED: A: 0  B: ffffffa9  op: add_op result: ffffffa9
PASSED: A: fffffffb  B: ffffffff  op: or_op result: ffffffff
PASSED: A: 36  B: ffffff8f  op: or_op result: ffffffbf
PASSED: A: 0  B: ffffff9b  op: er_crc_op result: 0
PASSED: A: 0  B: 0  op: er_data_op result: 0
PASSED: A: 0  B: 0  op: er_data_op result: 0
PASSED: A: 0  B: 0  op: er_data_op result: 0
PASSED: A: ffffff86  B: 3b  op: and_op result: 2
PASSED: A: ffffffff  B: 5b  op: and_op result: 5b
PASSED: A: 0  B: 0  op: er_data_op result: 0
PASSED: A: ffffffb8  B: ffffffe5  op: and_op result: ffffffa0
PASSED: A: ffffffff  B: ffffffc8  op: or_op result: ffffffff
PASSED: A: 1f  B: 0  op: or_op result: 1f
PASSED: A: 14  B: ffffff96  op: and_op result: 14
PASSED: A: ffffffed  B: ffffffff  op: or_op result: ffffffff
PASSED: A: 27  B: 0  op: sub_op result: ffffffd9
PASSED: A: ffffffff  B: 49  op: sub_op result: 4a
PASSED: A: 51  B: 2a  op: er_crc_op result: 0
PASSED: A: 0  B: 0  op: er_data_op result: 0
PASSED: A: 0  B: 0  op: er_data_op result: 0
PASSED: A: 0  B: 0  op: er_op_op result: 0
PASSED: A: 0  B: ffffffc5  op: and_op result: 0
PASSED: A: 0  B: ffffffb0  op: and_op result: 0
PASSED: A: 62  B: ffffffe1  op: add_op result: 43
PASSED: A: ffffffff  B: ffffff86  op: add_op result: ffffff85
PASSED: A: ffffff8d  B: 7  op: sub_op result: 7a
PASSED: A: 0  B: 3b  op: add_op result: 3b
PASSED: A: ffffffff  B: 5c  op: er_op_op result: 0
PASSED: A: 0  B: 0  op: sub_op result: 0
PASSED: A: 0  B: 0  op: er_data_op result: 0
PASSED: A: ffffff9e  B: 7b  op: er_crc_op result: 0
PASSED: A: ffffffff  B: ffffffff  op: er_crc_op result: 0
PASSED: A: 44  B: ffffffe0  op: sub_op result: ffffff9c
PASSED: A: fffffff8  B: 52  op: sub_op result: 5a
PASSED: A: ffffff8c  B: 0  op: add_op result: ffffff8c
PASSED: A: ffffff84  B: 7c  op: add_op result: 0
PASSED: A: ffffff8b  B: 25  op: and_op result: 1
PASSED: A: 0  B: 0  op: er_data_op result: 0
PASSED: A: ffffffff  B: 0  op: sub_op result: 1
PASSED: A: 39  B: 0  op: sub_op result: ffffffc7
PASSED: A: 0  B: 0  op: and_op result: 0
PASSED: A: 11  B: 0  op: and_op result: 0
PASSED: A: ffffffff  B: 0  op: er_crc_op result: 0
PASSED: A: 0  B: 39  op: er_crc_op result: 0
PASSED: A: 0  B: ffffffff  op: er_crc_op result: 0
PASSED: A: 0  B: 49  op: sub_op result: 49
PASSED: A: 0  B: 0  op: or_op result: 0
PASSED: A: ffffffff  B: ffffffc8  op: er_crc_op result: 0
PASSED: A: ffffff84  B: ffffffff  op: sub_op result: 7b
PASSED: A: 52  B: ffffffd0  op: or_op result: ffffffd2
PASSED: A: ffffffff  B: ffffffff  op: er_op_op result: 0
PASSED: A: ffffffff  B: 0  op: er_op_op result: 0
PASSED: A: c  B: ffffffc5  op: er_op_op result: 0
PASSED: A: 0  B: 69  op: er_op_op result: 0
PASSED: A: ffffffd8  B: ffffffff  op: er_op_op result: 0
PASSED: A: 0  B: ffffffff  op: add_op result: ffffffff
PASSED: A: 0  B: ffffffff  op: er_op_op result: 0
PASSED: A: 0  B: ffffffff  op: sub_op result: ffffffff
PASSED: A: ffffff8b  B: ffffffdb  op: er_op_op result: 0
PASSED: A: ffffffc5  B: 0  op: and_op result: 0
PASSED: A: ffffffaf  B: fffffff8  op: and_op result: ffffffa8
PASSED: A: ffffffff  B: ffffff95  op: er_op_op result: 0
PASSED: A: 0  B: 28  op: er_op_op result: 0
PASSED: A: ffffffe1  B: ffffffff  op: add_op result: ffffffe0
PASSED: A: ffffffd5  B: 0  op: er_op_op result: 0
PASSED: A: f  B: 7d  op: and_op result: d
PASSED: A: 3c  B: ffffffef  op: er_op_op result: 0
PASSED: A: ffffffff  B: ffffffb9  op: er_crc_op result: 0
PASSED: A: ffffffff  B: 51  op: er_crc_op result: 0
PASSED: A: 3a  B: 62  op: er_crc_op result: 0
PASSED: A: 7d  B: ffffffe5  op: add_op result: 62
PASSED: A: 41  B: ffffffff  op: sub_op result: ffffffbe
PASSED: A: 70  B: ffffffa2  op: er_crc_op result: 0
PASSED: A: ffffffdc  B: 0  op: sub_op result: 24
PASSED: A: 78  B: 5c  op: er_crc_op result: 0
PASSED: A: ffffffc8  B: ffffffff  op: er_crc_op result: 0
PASSED: A: ffffffff  B: 0  op: er_op_op result: 0
PASSED: A: 0  B: ffffffb9  op: er_op_op result: 0
PASSED: A: 0  B: c  op: er_crc_op result: 0
PASSED: A: 15  B: 4e  op: or_op result: 5f
PASSED: A: 0  B: 0  op: er_data_op result: 0
PASSED: A: ffffffff  B: 0  op: sub_op result: 1
PASSED: A: 4c  B: ffffffff  op: and_op result: 4c
PASSED: A: d  B: 0  op: and_op result: 0
PASSED: A: ffffffbc  B: 0  op: sub_op result: 44
PASSED: A: 0  B: 4d  op: and_op result: 0
PASSED: A: 5d  B: 0  op: sub_op result: ffffffa3
PASSED: A: 0  B: 0  op: er_data_op result: 0
PASSED: A: 46  B: ffffffff  op: er_op_op result: 0
PASSED: A: ffffffb7  B: 63  op: er_crc_op result: 0
PASSED: A: 68  B: ffffff90  op: or_op result: fffffff8
PASSED: A: 0  B: 0  op: er_data_op result: 0
PASSED: A: ffffffff  B: 0  op: and_op result: 0
PASSED: A: ffffff8b  B: 0  op: sub_op result: 75
PASSED: A: 0  B: ffffffa5  op: add_op result: ffffffa5
PASSED: A: ffffffff  B: 0  op: er_op_op result: 0
PASSED: A: 0  B: ffffff9a  op: add_op result: ffffff9a
PASSED: A: ffffffaa  B: ffffffc3  op: and_op result: ffffff82
PASSED: A: 0  B: 0  op: er_data_op result: 0
PASSED: A: 0  B: ffffff89  op: er_crc_op result: 0
PASSED: A: ffffffff  B: 68  op: er_crc_op result: 0
PASSED: A: ffffffff  B: ffffffff  op: sub_op result: 0
PASSED: A: 0  B: ffffff82  op: er_crc_op result: 0
PASSED: A: ffffffff  B: 32  op: add_op result: 31
PASSED: A: 0  B: ffffffaa  op: or_op result: ffffffaa
PASSED: A: ffffff8c  B: fffffffb  op: and_op result: ffffff88
PASSED: A: 0  B: ffffffff  op: add_op result: ffffffff
PASSED: A: ffffffff  B: ffffff89  op: or_op result: ffffffff
PASSED: A: ffffffff  B: 0  op: or_op result: ffffffff
PASSED: A: ffffff82  B: 71  op: er_crc_op result: 0
PASSED: A: fffffff1  B: 5  op: er_crc_op result: 0
PASSED: A: 0  B: 0  op: add_op result: 0
PASSED: A: 0  B: 0  op: er_data_op result: 0
PASSED: A: 3e  B: 0  op: er_op_op result: 0
PASSED: A: 0  B: 12  op: add_op result: 12
PASSED: A: fffffffe  B: fffffff3  op: and_op result: fffffff2
PASSED: A: ffffffff  B: ffffffff  op: er_crc_op result: 0
PASSED: A: 0  B: ffffffa6  op: er_crc_op result: 0
PASSED: A: ffffffff  B: ffffffff  op: add_op result: fffffffe
PASSED: A: 0  B: ffffffe1  op: add_op result: ffffffe1
PASSED: A: ffffffc9  B: 0  op: sub_op result: 37
PASSED: A: 0  B: ffffffff  op: er_op_op result: 0
PASSED: A: ffffffff  B: ffffffdc  op: and_op result: ffffffdc
PASSED: A: 0  B: 0  op: and_op result: 0
PASSED: A: 0  B: 53  op: er_crc_op result: 0
PASSED: A: ffffffff  B: ffffffff  op: and_op result: ffffffff
PASSED: A: 0  B: 0  op: er_data_op result: 0
PASSED: A: c  B: 15  op: or_op result: 1d
PASSED: A: 0  B: 0  op: and_op result: 0
PASSED: A: ffffffff  B: ffffffff  op: and_op result: ffffffff
PASSED: A: 0  B: 0  op: sub_op result: 0
PASSED: A: ffffffff  B: ffffffff  op: sub_op result: 0
PASSED: A: 0  B: ffffffc9  op: er_crc_op result: 0
PASSED: A: ffffffce  B: ffffffff  op: er_crc_op result: 0
PASSED: A: ffffffff  B: 0  op: add_op result: ffffffff
PASSED: A: 1a  B: 0  op: sub_op result: ffffffe6
PASSED: A: 0  B: 0  op: er_data_op result: 0
PASSED: A: 0  B: ffffffea  op: er_crc_op result: 0
PASSED: A: 0  B: ffffffff  op: er_op_op result: 0
PASSED: A: 0  B: ffffffff  op: and_op result: 0
PASSED: A: 51  B: ffffffff  op: and_op result: 51
PASSED: A: ffffffb0  B: ffffffff  op: er_crc_op result: 0
PASSED: A: 0  B: 0  op: er_crc_op result: 0
PASSED: A: 61  B: 55  op: sub_op result: fffffff4
PASSED: A: ffffffff  B: ffffffd3  op: sub_op result: ffffffd4
PASSED: A: 58  B: ffffffc3  op: and_op result: 40
PASSED: A: 0  B: ffffffd6  op: add_op result: ffffffd6
PASSED: A: ffffffff  B: 0  op: add_op result: ffffffff
PASSED: A: 0  B: 0  op: er_data_op result: 0
PASSED: A: fffffff8  B: 6c  op: sub_op result: 74
PASSED: A: ffffff9c  B: 0  op: and_op result: 0
PASSED: A: 69  B: ffffffde  op: and_op result: 48
PASSED: A: 28  B: ffffff9a  op: sub_op result: ffffff72
PASSED: A: fffffffb  B: ffffffff  op: er_crc_op result: 0
PASSED: A: 0  B: 0  op: er_data_op result: 0
PASSED: A: ffffffff  B: ffffffff  op: or_op result: ffffffff
PASSED: A: 0  B: 7e  op: or_op result: 7e
PASSED: A: 49  B: ffffffff  op: add_op result: 48
PASSED: A: ffffffff  B: ffffffff  op: add_op result: fffffffe
PASSED: A: 77  B: ffffffe6  op: or_op result: fffffff7
PASSED: A: 0  B: fffffffc  op: or_op result: fffffffc
PASSED: A: 0  B: ffffffff  op: er_crc_op result: 0
PASSED: A: 0  B: 0  op: er_data_op result: 0
PASSED: A: 0  B: ffffffff  op: er_op_op result: 0
PASSED: A: 0  B: 0  op: er_data_op result: 0
PASSED: A: 0  B: 0  op: er_data_op result: 0
PASSED: A: 0  B: 0  op: er_crc_op result: 0
PASSED: A: ffffffff  B: 0  op: or_op result: ffffffff
PASSED: A: ffffffff  B: 2f  op: sub_op result: 30
PASSED: A: ffffffbc  B: ffffffa7  op: add_op result: ffffff63
PASSED: A: 0  B: 69  op: or_op result: 69
PASSED: A: 0  B: 0  op: er_data_op result: 0
PASSED: A: 37  B: fffffff8  op: er_crc_op result: 0
PASSED: A: 22  B: 0  op: and_op result: 0
PASSED: A: 0  B: 0  op: er_data_op result: 0
PASSED: A: 5e  B: 0  op: er_crc_op result: 0
PASSED: A: ffffffff  B: 37  op: sub_op result: 38
PASSED: A: ffffffce  B: ffffffd5  op: er_crc_op result: 0
PASSED: A: 0  B: 0  op: sub_op result: 0
PASSED: A: ffffffe3  B: 0  op: add_op result: ffffffe3
PASSED: A: 5c  B: ffffffec  op: er_crc_op result: 0
PASSED: A: ffffffff  B: 0  op: er_crc_op result: 0
PASSED: A: ffffffff  B: ffffffff  op: er_crc_op result: 0
PASSED: A: 0  B: ffffffff  op: er_crc_op result: 0
PASSED: A: 6a  B: 18  op: er_op_op result: 0
PASSED: A: 2e  B: 66  op: er_op_op result: 0
PASSED: A: ffffff8f  B: 7b  op: er_op_op result: 0
PASSED: A: ffffffff  B: ffffffc9  op: add_op result: ffffffc8
PASSED: A: ffffffad  B: ffffffff  op: add_op result: ffffffac
PASSED: A: 0  B: ffffffff  op: sub_op result: ffffffff
PASSED: A: 0  B: 0  op: or_op result: 0
PASSED: A: ffffffca  B: ffffffff  op: or_op result: ffffffff
PASSED: A: 0  B: 0  op: or_op result: 0
PASSED: A: 0  B: ffffffac  op: or_op result: ffffffac
PASSED: A: ffffffff  B: d  op: or_op result: ffffffff
PASSED: A: ffffffff  B: 2f  op: or_op result: ffffffff
PASSED: A: ffffffff  B: 5d  op: er_op_op result: 0
PASSED: A: ffffffff  B: 0  op: add_op result: ffffffff
PASSED: A: ffffffe9  B: ffffff8d  op: er_crc_op result: 0
PASSED: A: ffffffa0  B: ffffffff  op: er_op_op result: 0
PASSED: A: 0  B: ffffffd1  op: and_op result: 0
PASSED: A: ffffffff  B: 58  op: er_crc_op result: 0
PASSED: A: ffffffff  B: 29  op: er_crc_op result: 0
PASSED: A: ffffffff  B: 4d  op: add_op result: 4c
PASSED: A: ffffffff  B: ffffffb9  op: er_crc_op result: 0
PASSED: A: ffffff81  B: ffffff8f  op: and_op result: ffffff81
PASSED: A: f  B: ffffffff  op: er_op_op result: 0
PASSED: A: ffffff9a  B: 0  op: or_op result: ffffff9a
PASSED: A: ffffffff  B: ffffffd8  op: or_op result: ffffffff
PASSED: A: 25  B: 56  op: and_op result: 4
PASSED: A: ffffffff  B: 0  op: add_op result: ffffffff
PASSED: A: 0  B: 0  op: add_op result: 0
PASSED: A: ffffffd1  B: 0  op: and_op result: 0
PASSED: A: 0  B: 0  op: er_data_op result: 0
PASSED: A: 51  B: 45  op: add_op result: 96
PASSED: A: ffffff80  B: 0  op: er_crc_op result: 0
PASSED: A: 31  B: ffffffff  op: and_op result: 31
PASSED: A: ffffffff  B: 0  op: er_crc_op result: 0
PASSED: A: fffffff1  B: ffffff9e  op: add_op result: ffffff8f
PASSED: A: a  B: ffffffff  op: and_op result: a
PASSED: A: 25  B: 0  op: or_op result: 25
PASSED: A: 2f  B: ffffffff  op: and_op result: 2f
PASSED: A: 0  B: 0  op: and_op result: 0
PASSED: A: 0  B: 0  op: er_data_op result: 0
PASSED: A: ffffffff  B: 72  op: or_op result: ffffffff
PASSED: A: 0  B: 0  op: er_data_op result: 0
PASSED: A: ffffffcb  B: 71  op: and_op result: 41
PASSED: A: ffffffb5  B: 0  op: er_op_op result: 0
PASSED: A: 0  B: 0  op: er_data_op result: 0
PASSED: A: 5  B: ffffffb8  op: add_op result: ffffffbd
PASSED: A: ffffff8d  B: fffffff1  op: sub_op result: 64
PASSED: A: 34  B: ffffffff  op: add_op result: 33
PASSED: A: 5e  B: 0  op: sub_op result: ffffffa2
PASSED: A: 0  B: 0  op: er_op_op result: 0
PASSED: A: ffffff9b  B: 6b  op: and_op result: b
PASSED: A: ffffffff  B: ffffffd9  op: er_crc_op result: 0
PASSED: A: 0  B: 0  op: er_data_op result: 0
PASSED: A: ffffffff  B: 5  op: sub_op result: 6
PASSED: A: 0  B: ffffffff  op: or_op result: ffffffff
PASSED: A: ffffffff  B: 57  op: and_op result: 57
PASSED: A: ffffffff  B: 0  op: er_op_op result: 0
PASSED: A: ffffffff  B: 66  op: sub_op result: 67
PASSED: A: ffffffff  B: 0  op: er_op_op result: 0
PASSED: A: 0  B: 50  op: add_op result: 50
PASSED: A: 6a  B: 0  op: sub_op result: ffffff96
PASSED: A: 0  B: ffffffff  op: sub_op result: ffffffff
PASSED: A: 0  B: 1e  op: or_op result: 1e
PASSED: A: ffffffd6  B: ffffffa9  op: and_op result: ffffff80
PASSED: A: 40  B: fffffff5  op: and_op result: 40
PASSED: A: 0  B: 0  op: er_data_op result: 0
PASSED: A: ffffff9f  B: 0  op: add_op result: ffffff9f
PASSED: A: ffffff85  B: ffffffff  op: or_op result: ffffffff
PASSED: A: 34  B: 51  op: and_op result: 10
PASSED: A: 0  B: ffffffb4  op: er_crc_op result: 0
PASSED: A: ffffffff  B: ffffffec  op: er_op_op result: 0
PASSED: A: ffffffc0  B: ffffffff  op: er_op_op result: 0
PASSED: A: ffffffff  B: ffffff84  op: add_op result: ffffff83
PASSED: A: ffffffff  B: ffffffff  op: or_op result: ffffffff
PASSED: A: 0  B: 5d  op: add_op result: 5d
PASSED: A: 0  B: ffffffff  op: er_op_op result: 0
PASSED: A: 5d  B: 76  op: and_op result: 54
PASSED: A: ffffffff  B: 0  op: er_crc_op result: 0
PASSED: A: 0  B: ffffffcd  op: and_op result: 0
PASSED: A: 0  B: 0  op: er_data_op result: 0
PASSED: A: ffffffff  B: ffffffff  op: and_op result: ffffffff
PASSED: A: ffffffb3  B: ffffffff  op: or_op result: ffffffff
PASSED: A: fffffffc  B: ffffffff  op: and_op result: fffffffc
PASSED: A: 75  B: d  op: and_op result: 5
PASSED: A: 0  B: 0  op: and_op result: 0
PASSED: A: ffffffff  B: 68  op: and_op result: 68
PASSED: A: 0  B: 0  op: er_data_op result: 0
PASSED: A: ffffffff  B: ffffffb1  op: er_crc_op result: 0
PASSED: A: fffffff6  B: 0  op: add_op result: fffffff6
PASSED: A: ffffffff  B: 3e  op: add_op result: 3d
PASSED: A: 3d  B: 0  op: add_op result: 3d
PASSED: A: 0  B: 0  op: er_data_op result: 0
PASSED: A: 0  B: 0  op: and_op result: 0
PASSED: A: ffffffff  B: ffffffd7  op: or_op result: ffffffff
PASSED: A: 4a  B: 41  op: er_crc_op result: 0
PASSED: A: 71  B: 0  op: and_op result: 0
PASSED: A: 0  B: fffffffe  op: er_crc_op result: 0
PASSED: A: 0  B: ffffffd3  op: er_crc_op result: 0
PASSED: A: fffffff9  B: 0  op: and_op result: 0
PASSED: A: 0  B: ffffffff  op: sub_op result: ffffffff
PASSED: A: 67  B: 0  op: and_op result: 0
PASSED: A: ffffffcf  B: fffffff2  op: and_op result: ffffffc2
PASSED: A: 0  B: 0  op: add_op result: 0
PASSED: A: 0  B: ffffffcb  op: er_op_op result: 0
PASSED: A: 0  B: 0  op: er_op_op result: 0
PASSED: A: 0  B: 21  op: or_op result: 21
PASSED: A: ffffffff  B: ffffffff  op: sub_op result: 0
PASSED: A: 0  B: 20  op: er_op_op result: 0
PASSED: A: 0  B: 0  op: er_data_op result: 0
PASSED: A: 0  B: 0  op: and_op result: 0
PASSED: A: ffffffff  B: ffffffff  op: and_op result: ffffffff
PASSED: A: 0  B: 0  op: er_data_op result: 0
PASSED: A: 0  B: fffffff2  op: add_op result: fffffff2
PASSED: A: 0  B: 0  op: add_op result: 0
PASSED: A: 0  B: 0  op: er_data_op result: 0
PASSED: A: 0  B: 0  op: er_data_op result: 0
PASSED: A: 0  B: 0  op: er_data_op result: 0
PASSED: A: fffffff5  B: 46  op: er_op_op result: 0
PASSED: A: ffffff93  B: 0  op: er_crc_op result: 0
PASSED: A: 72  B: ffffffb5  op: add_op result: 27
PASSED: A: 0  B: ffffffff  op: er_crc_op result: 0
PASSED: A: 57  B: ffffffb4  op: or_op result: fffffff7
PASSED: A: ffffffff  B: 72  op: and_op result: 72
PASSED: A: ffffffcd  B: ffffffd7  op: er_op_op result: 0
PASSED: A: ffffff96  B: ffffff87  op: er_crc_op result: 0
PASSED: A: 0  B: 22  op: sub_op result: 22
PASSED: A: ffffffff  B: ffffffb0  op: er_crc_op result: 0
PASSED: A: 0  B: 0  op: or_op result: 0
PASSED: A: 0  B: 0  op: er_data_op result: 0
PASSED: A: 0  B: 0  op: er_data_op result: 0
PASSED: A: 0  B: 0  op: er_data_op result: 0
PASSED: A: 4f  B: 0  op: add_op result: 4f
PASSED: A: 0  B: ffffffbd  op: er_crc_op result: 0
PASSED: A: ffffffff  B: ffffffff  op: and_op result: ffffffff
PASSED: A: b  B: ffffff8f  op: sub_op result: ffffff84
PASSED: A: 7b  B: ffffffc5  op: sub_op result: ffffff4a
PASSED: A: ffffffca  B: ffffffff  op: sub_op result: 35
PASSED: A: 1a  B: ffffffff  op: sub_op result: ffffffe5
PASSED: A: 0  B: 0  op: er_data_op result: 0
PASSED: A: ffffff8e  B: fffffff7  op: er_op_op result: 0
PASSED: A: fffffffe  B: ffffffa7  op: er_op_op result: 0
PASSED: A: 59  B: ffffff8d  op: add_op result: ffffffe6
PASSED: A: ffffffff  B: ffffffff  op: sub_op result: 0
PASSED: A: ffffffff  B: ffffffff  op: add_op result: fffffffe
PASSED: A: ffffffff  B: 0  op: and_op result: 0
PASSED: A: ffffffff  B: 0  op: and_op result: 0
PASSED: A: ffffffff  B: 0  op: and_op result: 0
PASSED: A: 72  B: 0  op: er_op_op result: 0
PASSED: A: 0  B: ffffffff  op: add_op result: ffffffff
PASSED: A: ffffffff  B: 0  op: er_crc_op result: 0
PASSED: A: ffffffe4  B: ffffffae  op: add_op result: ffffff92
PASSED: A: 0  B: d  op: or_op result: d
PASSED: A: 0  B: 0  op: er_op_op result: 0
PASSED: A: 37  B: ffffffff  op: or_op result: ffffffff
PASSED: A: 5e  B: 1b  op: or_op result: 5f
PASSED: A: 5b  B: 0  op: sub_op result: ffffffa5
PASSED: A: 7c  B: fffffff1  op: and_op result: 70
PASSED: A: ffffffff  B: 6f  op: or_op result: ffffffff
PASSED: A: 0  B: 0  op: er_data_op result: 0
PASSED: A: 0  B: ffffffff  op: sub_op result: ffffffff
PASSED: A: 67  B: ffffffd8  op: er_op_op result: 0
PASSED: A: ffffffab  B: 0  op: er_op_op result: 0
PASSED: A: 0  B: ffffffb1  op: er_op_op result: 0
PASSED: A: 0  B: ffffffff  op: er_op_op result: 0
PASSED: A: 0  B: 0  op: er_data_op result: 0
PASSED: A: ffffffff  B: 0  op: add_op result: ffffffff
PASSED: A: ffffffa0  B: 37  op: add_op result: ffffffd7
PASSED: A: ffffffdf  B: ffffff83  op: or_op result: ffffffdf
PASSED: A: 0  B: ffffffff  op: er_op_op result: 0
PASSED: A: 0  B: 3b  op: and_op result: 0
PASSED: A: 0  B: ffffff8d  op: er_op_op result: 0
PASSED: A: 4b  B: 0  op: add_op result: 4b
PASSED: A: 4c  B: ffffffff  op: add_op result: 4b
PASSED: A: ffffffac  B: ffffffb7  op: add_op result: ffffff63
PASSED: A: ffffffd3  B: 0  op: or_op result: ffffffd3
PASSED: A: 75  B: 2a  op: er_crc_op result: 0
PASSED: A: 0  B: 0  op: er_data_op result: 0
PASSED: A: ffffffff  B: fffffff3  op: sub_op result: fffffff4
PASSED: A: 0  B: 0  op: er_data_op result: 0
PASSED: A: 0  B: 0  op: er_data_op result: 0
PASSED: A: 0  B: 0  op: er_data_op result: 0
PASSED: A: 0  B: ffffffff  op: er_op_op result: 0
PASSED: A: 0  B: ffffffff  op: sub_op result: ffffffff
PASSED: A: ffffffff  B: 0  op: and_op result: 0
PASSED: A: ffffffdc  B: 22  op: and_op result: 0
PASSED: A: 0  B: 0  op: er_data_op result: 0
PASSED: A: ffffffff  B: ffffff96  op: er_op_op result: 0
PASSED: A: 0  B: 0  op: or_op result: 0
PASSED: A: 2  B: ffffffa1  op: or_op result: ffffffa3
PASSED: A: ffffffe4  B: 44  op: and_op result: 44
PASSED: A: 0  B: ffffffdc  op: add_op result: ffffffdc
PASSED: A: 60  B: ffffffff  op: add_op result: 5f
PASSED: A: ffffffce  B: 2c  op: add_op result: fffffffa
PASSED: A: 2a  B: 4b  op: add_op result: 75
PASSED: A: 9  B: ffffffff  op: er_op_op result: 0
PASSED: A: ffffffff  B: 0  op: er_crc_op result: 0
PASSED: A: a  B: ffffffe2  op: er_op_op result: 0
PASSED: A: 0  B: 2d  op: sub_op result: 2d
PASSED: A: ffffffff  B: ffffffff  op: or_op result: ffffffff
PASSED: A: ffffffff  B: 0  op: add_op result: ffffffff
PASSED: A: ffffffff  B: ffffffff  op: add_op result: fffffffe
PASSED: A: 0  B: ffffffff  op: add_op result: ffffffff
PASSED: A: 51  B: 54  op: or_op result: 55
PASSED: A: fffffff3  B: 0  op: add_op result: fffffff3
PASSED: A: ffffffff  B: 0  op: add_op result: ffffffff
PASSED: A: 49  B: ffffffae  op: er_crc_op result: 0
PASSED: A: ffffffff  B: 7  op: sub_op result: 8
PASSED: A: ffffffff  B: ffffffff  op: er_crc_op result: 0
PASSED: A: ffffff8f  B: ffffffff  op: er_op_op result: 0
PASSED: A: ffffffff  B: 0  op: er_op_op result: 0
PASSED: A: ffffffc9  B: ffffff8a  op: or_op result: ffffffcb
PASSED: A: 0  B: 0  op: er_data_op result: 0
PASSED: A: ffffffff  B: ffffffc9  op: sub_op result: ffffffca
PASSED: A: 0  B: 0  op: er_data_op result: 0
PASSED: A: ffffffb6  B: 0  op: and_op result: 0
PASSED: A: 0  B: 0  op: er_data_op result: 0
PASSED: A: ffffffff  B: ffffffc1  op: er_crc_op result: 0
PASSED: A: ffffff8f  B: ffffffff  op: er_op_op result: 0
PASSED: A: ffffffff  B: 0  op: or_op result: ffffffff
PASSED: A: ffffff85  B: ffffffff  op: and_op result: ffffff85
PASSED: A: 0  B: 0  op: and_op result: 0
